Case Study 1
…
## data frame with 0 columns and 50 rows

# Compute the median alcohol content and international bitterness unit for each state. ####
## IBU Median by State ####
plot_ds <- beers_ds %>% group_by(State) %>%
  summarise(median = median(IBU))

plot_ds <- arrange(plot_ds, desc(median))

colnames(plot_ds)[2] <- c("IBU_Median")

plot_ds

## # A tibble: 51 × 2
##    State IBU_Median
##    <chr>      <dbl>
##  1 " NJ"       55  
##  2 " WV"       53  
##  3 " AL"       35  
##  4 " MN"       35  
##  5 " ND"       35  
##  6 " VA"       34  
##  7 " TN"       33.5
##  8 " MS"       31  
##  9 " DE"       30  
## 10 " AK"       25  
## # … with 41 more rows

## ABV median by State ####
ABV_Median <- beers_ds %>% group_by(State) %>%
  summarise(median = median(ABV))

ABV_Median <- arrange(ABV_Median, desc(median))

ABV_Median

## # A tibble: 51 × 2
##    State median
##    <chr>  <dbl>
##  1 " KY" 0.065 
##  2 " DC" 0.0625
##  3 " NV" 0.062 
##  4 " WV" 0.062 
##  5 " NM" 0.061 
##  6 " AL" 0.06  
##  7 " CO" 0.06  
##  8 " CT" 0.06  
##  9 " DE" 0.06  
## 10 " MI" 0.06  
## # … with 41 more rows
…
